module gitlab.com/elixxir/server

go 1.19

require (
	github.com/InfiniteLoopSpace/go_S-MIME v0.0.0-20181221134359-3f58f9a4b2b6
	github.com/cznic/mathutil v0.0.0-20181122101859-297441e03548
	github.com/golang/protobuf v1.5.2
	github.com/jinzhu/copier v0.0.0-20201025035756-632e723a6687
	github.com/pkg/errors v0.9.1
	github.com/spf13/cobra v1.1.1
	github.com/spf13/jwalterweatherman v1.1.0
	github.com/spf13/viper v1.7.1
	gitlab.com/elixxir/comms v0.0.4-0.20221110181420-84bca6216fe4
	gitlab.com/elixxir/crypto v0.0.7-0.20221110181326-dd7e5293feb0
	gitlab.com/elixxir/gpumathsgo v0.1.1-0.20220901223158-f0f1496060cb
	gitlab.com/elixxir/primitives v0.0.3-0.20221110181119-e83320a48b13
	gitlab.com/xx_network/comms v0.0.4-0.20221110181111-4f0694876936
	gitlab.com/xx_network/crypto v0.0.5-0.20221110181048-76f0c556fe95
	gitlab.com/xx_network/primitives v0.0.4-0.20221110180011-fd6ea3058225
	golang.org/x/crypto v0.0.0-20220722155217-630584e8d5aa
	google.golang.org/grpc v1.49.0
	google.golang.org/protobuf v1.28.1
	gopkg.in/yaml.v2 v2.4.0
	gorm.io/driver/postgres v1.1.2
	gorm.io/gorm v1.21.16
)

require (
	git.xx.network/elixxir/grpc-web-go-client v0.0.0-20221102223039-dc1f37d94e70 // indirect
	github.com/cenkalti/backoff/v4 v4.1.3 // indirect
	github.com/desertbit/timer v0.0.0-20180107155436-c41aec40b27f // indirect
	github.com/elliotchance/orderedmap v1.4.0 // indirect
	github.com/fsnotify/fsnotify v1.4.9 // indirect
	github.com/golang-collections/collections v0.0.0-20130729185459-604e922904d3 // indirect
	github.com/gopherjs/gopherjs v0.0.0-20200217142428-fce0ec30dd00 // indirect
	github.com/gorilla/websocket v1.5.0 // indirect
	github.com/hashicorp/hcl v1.0.0 // indirect
	github.com/improbable-eng/grpc-web v0.15.0 // indirect
	github.com/inconshreveable/mousetrap v1.0.0 // indirect
	github.com/jackc/chunkreader/v2 v2.0.1 // indirect
	github.com/jackc/pgconn v1.10.0 // indirect
	github.com/jackc/pgio v1.0.0 // indirect
	github.com/jackc/pgpassfile v1.0.0 // indirect
	github.com/jackc/pgproto3/v2 v2.1.1 // indirect
	github.com/jackc/pgservicefile v0.0.0-20200714003250-2b9c44734f2b // indirect
	github.com/jackc/pgtype v1.8.1 // indirect
	github.com/jackc/pgx/v4 v4.13.0 // indirect
	github.com/jinzhu/inflection v1.0.0 // indirect
	github.com/jinzhu/now v1.1.2 // indirect
	github.com/klauspost/compress v1.11.7 // indirect
	github.com/magiconair/properties v1.8.4 // indirect
	github.com/mitchellh/go-homedir v1.1.0 // indirect
	github.com/mitchellh/mapstructure v1.4.0 // indirect
	github.com/pelletier/go-toml v1.8.1 // indirect
	github.com/remyoudompheng/bigfft v0.0.0-20200410134404-eec4a21b6bb0 // indirect
	github.com/rogpeppe/go-internal v1.9.0 // indirect
	github.com/rs/cors v1.8.2 // indirect
	github.com/smartystreets/assertions v1.2.0 // indirect
	github.com/soheilhy/cmux v0.1.5 // indirect
	github.com/spf13/afero v1.5.1 // indirect
	github.com/spf13/cast v1.3.1 // indirect
	github.com/spf13/pflag v1.0.5 // indirect
	github.com/subosito/gotenv v1.2.0 // indirect
	gitlab.com/xx_network/ring v0.0.3-0.20220902183151-a7d3b15bc981 // indirect
	go.uber.org/atomic v1.10.0 // indirect
	golang.org/x/net v0.0.0-20220822230855-b0a4917ee28c // indirect
	golang.org/x/sys v0.0.0-20220731174439-a90be440212d // indirect
	golang.org/x/text v0.3.7 // indirect
	google.golang.org/genproto v0.0.0-20220822174746-9e6da59bd2fc // indirect
	gopkg.in/ini.v1 v1.62.0 // indirect
	nhooyr.io/websocket v1.8.7 // indirect
)
